LDA
…
## Joining, by = "word"

#finalmente, unimos el diccionario a data frame tidy_review

tidy_review %>%
  inner_join(get_sentiments("loughran"))

## Joining, by = "word"

## # A tibble: 3,960 x 6
##       id Date     Product                    Stars word      sentiment  
##    <int> <chr>    <chr>                      <dbl> <chr>     <chr>      
##  1     5 12/22/15 iRobot Roomba 650 for Pets     5 slow      negative   
##  2     5 12/22/15 iRobot Roomba 650 for Pets     5 easily    positive   
##  3     5 12/22/15 iRobot Roomba 650 for Pets     5 random    uncertainty
##  4     5 12/22/15 iRobot Roomba 650 for Pets     5 easy      positive   
##  5     5 12/22/15 iRobot Roomba 650 for Pets     5 easy      positive   
##  6     5 12/22/15 iRobot Roomba 650 for Pets     5 easy      positive   
##  7     6 12/27/15 iRobot Roomba 650 for Pets     5 invention positive   
##  8     7 8/17/15  iRobot Roomba 650 for Pets     1 damage    negative   
##  9     7 8/17/15  iRobot Roomba 650 for Pets     1 damage    negative   
## 10     7 8/17/15  iRobot Roomba 650 for Pets     1 justice   litigious  
## # … with 3,950 more rows
…
