Sentiment Analysis
…
Para hacer análisis de sentimiento, se recomiendo utilizar diccionarios de sentimientos existentes. El paquete tidytext trae varios diccionarios pre-cargados, pero están todos en inglés.

Bing dictionario: un data frame con palabras categorizadas por sentimientos positivo o negativo

library(tidytext)

## Warning: package 'tidytext' was built under R version 3.6.2

library(textdata)

## Warning: package 'textdata' was built under R version 3.6.2

get_sentiments("bing")

## # A tibble: 6,786 x 2
##    word        sentiment
##    <chr>       <chr>    
##  1 2-faces     negative 
##  2 abnormal    negative 
##  3 abolish     negative 
##  4 abominable  negative 
##  5 abominably  negative 
##  6 abominate   negative 
##  7 abomination negative 
##  8 abort       negative 
##  9 aborted     negative 
## 10 aborts      negative 
## # … with 6,776 more rows

get_sentiments("bing") %>%
  count(sentiment)

## # A tibble: 2 x 2
##   sentiment     n
##   <chr>     <int>
## 1 negative   4781
## 2 positive   2005

Afinn dictionary: un data frame con palabras a las que se les asigna un puntaje numérico de sentimiento.

get_sentiments("afinn")

## # A tibble: 2,477 x 2
##    word       value
##    <chr>      <dbl>
##  1 abandon       -2
##  2 abandoned     -2
##  3 abandons      -2
##  4 abducted      -2
##  5 abduction     -2
##  6 abductions    -2
##  7 abhor         -3
##  8 abhorred      -3
##  9 abhorrent     -3
## 10 abhors        -3
## # … with 2,467 more rows
…
## # A tibble: 1 x 2
##     min   max
##   <dbl> <dbl>
## 1    -5     5

Loughran dictionary: un data frame con palabras a las que se les asigna una categoría nominal de sentimiento a cada palabra. A diferencia de bing este diccionario usa distintas categorías, no solo positivo y negativo.

Para echarle un ojo a este diccionario, podemos usar el siguiente código.

get_sentiments("loughran")

## # A tibble: 4,150 x 2
##    word         sentiment
##    <chr>        <chr>    
##  1 abandon      negative 
##  2 abandoned    negative 
##  3 abandoning   negative 
##  4 abandonment  negative 
##  5 abandonments negative 
##  6 abandons     negative 
##  7 abdicated    negative 
##  8 abdicates    negative 
##  9 abdicating   negative 
## 10 abdication   negative 
## # … with 4,140 more rows
…
NRC dictionary: Por último, el diccionario NRC, que es quizá el más completo. Categoriza las palabras en función de 10 tipos de sentimientos, como se puede ver en el resumen que hacemos seguidamente.

get_sentiments("nrc")

## # A tibble: 13,901 x 2
##    word        sentiment
##    <chr>       <chr>    
##  1 abacus      trust    
##  2 abandon     fear     
##  3 abandon     negative 
##  4 abandon     sadness  
##  5 abandoned   anger    
##  6 abandoned   fear     
##  7 abandoned   negative 
##  8 abandoned   sadness  
##  9 abandonment anger    
## 10 abandonment fear     
## # … with 13,891 more rows
…
## Joining, by = "word"

#finalmente, unimos el diccionario a data frame tidy_review

tidy_review %>%
  inner_join(get_sentiments("loughran"))

## Joining, by = "word"

## # A tibble: 3,960 x 6
##       id Date     Product                    Stars word      sentiment  
##    <int> <chr>    <chr>                      <dbl> <chr>     <chr>      
##  1     5 12/22/15 iRobot Roomba 650 for Pets     5 slow      negative   
##  2     5 12/22/15 iRobot Roomba 650 for Pets     5 easily    positive   
##  3     5 12/22/15 iRobot Roomba 650 for Pets     5 random    uncertainty
##  4     5 12/22/15 iRobot Roomba 650 for Pets     5 easy      positive   
##  5     5 12/22/15 iRobot Roomba 650 for Pets     5 easy      positive   
##  6     5 12/22/15 iRobot Roomba 650 for Pets     5 easy      positive   
##  7     6 12/27/15 iRobot Roomba 650 for Pets     5 invention positive   
##  8     7 8/17/15  iRobot Roomba 650 for Pets     1 damage    negative   
##  9     7 8/17/15  iRobot Roomba 650 for Pets     1 damage    negative   
## 10     7 8/17/15  iRobot Roomba 650 for Pets     1 justice   litigious  
## # … with 3,950 more rows
…
Otra cosa que podemos hacer es contar por palabra y por sentimiento

sentiment_review %>%
  count(word, sentiment) %>%
  arrange(desc(n))

## # A tibble: 598 x 3
##    word      sentiment       n
##    <chr>     <chr>       <int>
##  1 easy      positive      297
##  2 happy     positive      107
##  3 easier    positive       97
##  4 easily    positive       92
##  5 perfect   positive       87
##  6 random    uncertainty    81
##  7 impressed positive       77
##  8 excellent positive       58
##  9 trouble   negative       58
## 10 fantastic positive       56
## # … with 588 more rows
…
