Visualización de Texto
…
Ahora repetimos el proceso que hicimos anteriormente, combinando en un solo grupo de código todo lo que necesitamos.

tidy_review2 <- review_data %>%
  mutate(id= row_number()) %>%
  select(id, Date, Product, Stars, Review) %>%
  unnest_tokens(word, Review) %>%
  anti_join (stop_words2)

## Joining, by = "word"

tidy_review2

## # A tibble: 76,175 x 5
##       id Date     Product                    Stars word       
##    <int> <chr>    <chr>                      <dbl> <chr>      
##  1     2 1/12/15  iRobot Roomba 650 for Pets     4 walk       
##  2     2 1/12/15  iRobot Roomba 650 for Pets     4 rest       
##  3     3 12/26/13 iRobot Roomba 650 for Pets     5 proof      
##  4     3 12/26/13 iRobot Roomba 650 for Pets     5 house      
##  5     3 12/26/13 iRobot Roomba 650 for Pets     5 awesome    
##  6     3 12/26/13 iRobot Roomba 650 for Pets     5 pet        
##  7     3 12/26/13 iRobot Roomba 650 for Pets     5 cleans     
##  8     4 8/4/13   iRobot Roomba 650 for Pets     3 fascinating
##  9     4 8/4/13   iRobot Roomba 650 for Pets     3 albeit     
## 10     4 8/4/13   iRobot Roomba 650 for Pets     3 expensive  
## # … with 76,165 more rows

Para poder ordenar los gráficos que hemos usado, utilizaremos la función fct_reorder que re-ordena las variables de texto.

word_count <- tidy_review2 %>%
  count(word) %>%
  filter (n>300) %>%
  mutate (word2 = fct_reorder(word,n))
word_count

## # A tibble: 23 x 3
##    word         n word2   
##    <chr>    <int> <fct>   
##  1 880        525 880     
##  2 bin        428 bin     
##  3 carpet     368 carpet  
##  4 clean     1204 clean   
##  5 cleaning   809 cleaning
##  6 day        578 day     
##  7 dirt       384 dirt    
##  8 dog        407 dog     
##  9 dust       543 dust    
## 10 floor      561 floor   
## # … with 13 more rows
…
